CipherString = @SECLEVEL=2:kEECDH:kRSA:kEDH:kPSK:kDHEPSK:kECDHEPSK:kRSAPSK:-aDSS:-3DES:!DES:!RC4:!RC2:!IDEA:-SEED:!eNULL:!aNULL:!MD5:-SHA384:-CAMELLIA:-ARIA:-AESCCM8
Ciphersuites = TLS_AES_256_GCM_SHA384:TLS_CHACHA20_POLY1305_SHA256:TLS_AES_128_GCM_SHA256:TLS_AES_128_CCM_SHA256
TLS.MinProtocol = TLSv1.2
TLS.MaxProtocol = TLSv1.3
DTLS.MinProtocol = DTLSv1.2
DTLS.MaxProtocol = DTLSv1.2
SignatureAlgorithms = ECDSA+SHA256:ECDSA+SHA384:ECDSA+SHA512:ed25519:ed448:rsa_pss_pss_sha256:rsa_pss_pss_sha384:rsa_pss_pss_sha512:rsa_pss_rsae_sha256:rsa_pss_rsae_sha384:rsa_pss_rsae_sha512:RSA+SHA256:RSA+SHA384:RSA+SHA512:ECDSA+SHA224:RSA+SHA224
Groups = X25519:secp256r1:X448:secp521r1:secp384r1:ffdhe2048:ffdhe3072:ffdhe4096:ffdhe6144:ffdhe8192

[req]
default_bits = 2048

[openssl_init]
alg_section = evp_properties

[evp_properties]
rh-allow-sha1-signatures = yes
